{
    "env": "Ici c'est La production",
    "jwt": {
        "secret": "ozdp9a8PGmdP54z9A",
        "algorithm": "HS512",
        "expiresIn": "1h",
        "noTimestamp": true,
        "ignoreExpiration": false
    },
    "mailer": {
        "service": "gmail",
        "login": "esgi.ecomics@gmail.com",
        "password": "oz,Pda8x!"
    },
    "apiMl": "http://51.83.12.219:8041/machinelearning/bw_converter"
}
